<svg width="35" height="35" viewBox="0 0 35 35" fill="none" xmlns="http://www.w3.org/2000/svg">
<circle cx="17.5" cy="17.5" r="17.5" fill="#E6E7E8"/>
<g clip-path="url(#clip0_1_28)">
<path d="M9 15.5272C9.03586 15.2363 9.07173 14.9454 9.12553 14.6727C9.35865 13.3818 9.91456 12.2727 10.7753 11.309C11.7795 10.1818 13.0348 9.43632 14.5053 9.14541C16.2268 8.79995 17.8587 9.0545 19.3829 9.98177C21.1044 11.0363 22.1983 12.5636 22.6108 14.5454C22.9694 16.2363 22.7004 17.8545 21.8755 19.3818C21.7141 19.6727 21.7141 19.6727 21.9473 19.909C23.1487 21.1272 24.3502 22.3454 25.5517 23.5636C25.9462 23.9636 26.1076 24.4181 25.9641 24.9636C25.6951 26 24.4219 26.3818 23.615 25.5454C22.9335 24.8363 22.2521 24.1636 21.5527 23.4545C20.9968 22.8909 20.4589 22.3454 19.903 21.7818C19.8671 21.7454 19.8312 21.709 19.8133 21.6909C19.3829 21.909 18.9884 22.1636 18.558 22.3454C16.711 23.1272 14.846 23.109 13.0169 22.2727C11.6361 21.6363 10.596 20.6363 9.86076 19.309C9.39451 18.4545 9.10759 17.5454 9.03586 16.5636C9.03586 16.509 9.01793 16.4545 9 16.4C9 16.1272 9 15.8181 9 15.5272ZM11.2236 15.9818C11.2236 18.5818 13.3217 20.6909 15.8861 20.6727C18.4504 20.6545 20.5127 18.5636 20.5127 15.9636C20.5127 13.3818 18.4146 11.2545 15.8681 11.2545C13.3038 11.2727 11.2236 13.3818 11.2236 15.9818Z" fill="#494652"/>
</g>
<defs>
<clipPath id="clip0_1_28">
<rect width="17" height="17" fill="white" transform="translate(9 9)"/>
</clipPath>
</defs>
</svg>
